frequencie,to,mode,channel,name,bandwidth
443600000,,,690 UB,,
443612500,,,691 UB,,
443625000,,,692 UB,,
443637500,,,693 UB,,
443650000,,,694 UB,,
443662500,,,695 UB,,
443675000,,,696 UB,,
443687500,,,697 UB,,
443700000,,,698 UB,,
443712500,,,699 UB,,
443725000,,,700 UB,,
443737500,,,701 UB,,
443750000,,,702 UB,,
443762500,,,703 UB,,
443775000,,,704 UB,,
443787500,,,705 UB,,
443800000,,,706 UB,,
443812500,,,707 UB,,
443825000,,,708 UB,,
443837500,,,709 UB,,
443850000,,,710 UB,,
443862500,,,711 UB,,
443875000,,,712 UB,,
443887500,,,713 UB,,
443900000,,,714 UB,,
443912500,,,715 UB,,
443925000,,,716 UB,,
443937500,,,717 UB,,
443950000,,,718 UB,,
443962500,,,719 UB,,
443975000,,,720 UB,,
443987500,,,721 UB,,
444000000,,,722 UB,,
444012500,,,723 UB,,
444025000,,,724 UB,,
444037500,,,725 UB,,
444050000,,,726 UB,,
444062500,,,727 UB,,
444075000,,,728 UB,,
444087500,,,729 UB,,
444100000,,,730 UB,,
444112500,,,731 UB,,
444125000,,,732 UB,,
444137500,,,733 UB,,
444150000,,,734 UB,,
444162500,,,735 UB,,
444175000,,,736 UB,,
444187500,,,737 UB,,
444200000,,,738 UB,,
444212500,,,739 UB,,
444225000,,,740 UB,,
444237500,,,741 UB,,
444250000,,,742 UB,,
444262500,,,743 UB,,
444275000,,,744 UB,,
444287500,,,745 UB,,
444300000,,,746 UB,,
444312500,,,747 UB,,
444325000,,,748 UB,,
444337500,,,749 UB,,
444350000,,,750 UB,,
444362500,,,751 UB,,
444375000,,,752 UB,,
444387500,,,753 UB,,
444400000,,,754 UB,,
444412500,,,755 UB,,
444425000,,,756 UB,,
444437500,,,757 UB,,
444450000,,,758 UB,,
444462500,,,759 UB,,
444475000,,,760 UB,,
444487500,,,761 UB,,
444500000,,,762 UB,,
444512500,,,763 UB,,
444525000,,,764 UB,,
444537500,,,765 UB,,
444550000,,,766 UB,,
444562500,,,767 UB,,
444575000,,,768 UB,,
444587500,,,769 UB,,
444600000,,,770 UB,,
444612500,,,771 UB,,
444625000,,,772 UB,,
444637500,,,773 UB,,
444650000,,,774 UB,,
444662500,,,775 UB,,
444675000,,,776 UB,,
444687500,,,777 UB,,
444700000,,,778 UB,,
444712500,,,779 UB,,
444725000,,,780 UB,,
444737500,,,781 UB,,
444750000,,,782 UB,,
444762500,,,783 UB,,
444775000,,,784 UB,,
444787500,,,785 UB,,
444800000,,,786 UB,,
444812500,,,787 UB,,
444825000,,,788 UB,,
444837500,,,789 UB,,
444850000,,,790 UB,,
444862500,,,791 UB,,
444875000,,,792 UB,,
444887500,,,793 UB,,
444900000,,,794 UB,,
444912500,,,795 UB,,
444925000,,,796 UB,,
444937500,,,797 UB,,
444950000,,,798 UB,,
444962500,,,799 UB,,
448600000,,,690 OB,,
448612500,,,691 OB,,
448625000,,,692 OB,,
448637500,,,693 OB,,
448650000,,,694 OB,,
448662500,,,695 OB,,
448675000,,,696 OB,,
448687500,,,697 OB,,
448700000,,,698 OB,,
448712500,,,699 OB,,
448725000,,,700 OB,,
448737500,,,701 OB,,
448750000,,,702 OB,,
448762500,,,703 OB,,
448775000,,,704 OB,,
448787500,,,705 OB,,
448800000,,,706 OB,,
448812500,,,707 OB,,
448825000,,,708 OB,,
448837500,,,709 OB,,
448850000,,,710 OB,,
448862500,,,711 OB,,
448875000,,,712 OB,,
448887500,,,713 OB,,
448900000,,,714 OB,,
448912500,,,715 OB,,
448925000,,,716 OB,,
448937500,,,717 OB,,
448950000,,,718 OB,,
448962500,,,719 OB,,
448975000,,,720 OB,,
448987500,,,721 OB,,
449000000,,,722 OB,,
449012500,,,723 OB,,
449025000,,,724 OB,,
449037500,,,725 OB,,
449050000,,,726 OB,,
449062500,,,727 OB,,
449075000,,,728 OB,,
449087500,,,729 OB,,
449100000,,,730 OB,,
449112500,,,731 OB,,
449125000,,,732 OB,,
449137500,,,733 OB,,
449150000,,,734 OB,,
449162500,,,735 OB,,
449175000,,,736 OB,,
449187500,,,737 OB,,
449200000,,,738 OB,,
449212500,,,739 OB,,
449225000,,,740 OB,,
449237500,,,741 OB,,
449250000,,,742 OB,,
449262500,,,743 OB,,
449275000,,,744 OB,,
449287500,,,745 OB,,
449300000,,,746 OB,,
449312500,,,747 OB,,
449325000,,,748 OB,,
449337500,,,749 OB,,
449350000,,,750 OB,,
449362500,,,751 OB,,
449375000,,,752 OB,,
449387500,,,753 OB,,
449400000,,,754 OB,,
449412500,,,755 OB,,
449425000,,,756 OB,,
449437500,,,757 OB,,
449450000,,,758 OB,,
449462500,,,759 OB,,
449475000,,,760 OB,,
449487500,,,761 OB,,
449500000,,,762 OB,,
449512500,,,763 OB,,
449525000,,,764 OB,,
449537500,,,765 OB,,
449550000,,,766 OB,,
449562500,,,767 OB,,
449575000,,,768 OB,,
449587500,,,769 OB,,
449600000,,,770 OB,,
449612500,,,771 OB,,
449625000,,,772 OB,,
449637500,,,773 OB,,
449650000,,,774 OB,,
449662500,,,775 OB,,
449675000,,,776 OB,,
449687500,,,777 OB,,
449700000,,,778 OB,,
449712500,,,779 OB,,
449725000,,,780 OB,,
449737500,,,781 OB,,
449750000,,,782 OB,,
449762500,,,783 OB,,
449775000,,,784 OB,,
449787500,,,785 OB,,
449800000,,,786 OB,,
449812500,,,787 OB,,
449825000,,,788 OB,,
449837500,,,789 OB,,
449850000,,,790 OB,,
449862500,,,791 OB,,
449875000,,,792 OB,,
449887500,,,793 OB,,
449900000,,,794 OB,,
449912500,,,795 OB,,
449925000,,,796 OB,,
449937500,,,797 OB,,
449950000,,,798 OB,,
449962500,,,799 OB,,
