frequencie,to,mode,channel,name,bandwidth
446006250,,FM,1,,12500
446018750,,FM,2,,12500
446031250,,FM,3,,12500
446043750,,FM,4,,12500
446056250,,FM,5,,12500
446068750,,FM,6,,12500
446081250,,FM,7,,12500
446093750,,FM,8,,12500
446106250,,FM,9,,12500
446118750,,FM,10,,12500
446131250,,FM,11,,12500
446143750,,FM,12,,12500
446156250,,FM,13,,12500
446168750,,FM,14,,12500
446181250,,FM,15,,12500
446193750,,FM,16,,12500
446103125,,Digital,17,,6250
446109375,,Digital,18,,6250
446115625,,Digital,19,,6250
446121875,,Digital,20,,6250
446128125,,Digital,21,,6250
446134375,,Digital,22,,6250
446140625,,Digital,23,,6250
446146875,,Digital,24,,6250
446153125,,Digital,25,,6250
446159375,,Digital,26,,6250
446165625,,Digital,27,,6250
446171875,,Digital,28,,6250
446178125,,Digital,29,,6250
446184375,,Digital,30,,6250
446190625,,Digital,31,,6250
446196875,,Digital,32,,6250
